data/ALL0015/F0015CH2.CSV

Record Length,2.500000e+03,,  -0.000372000000,   2.56000,
Sample Interval,2.000000e-07,,  -0.000371800000,   2.56000,
Trigger Point,1.860000000000e+03,,  -0.000371600000,   2.56000,
,,,  -0.000371400000,   2.48000,
,,,  -0.000371200000,   2.56000,
,,,  -0.000371000000,   2.48000,
Source,CH2,,  -0.000370800000,   2.48000,
Vertical Units,V,,  -0.000370600000,   2.56000,
Vertical Scale,2.000000e+00,,  -0.000370400000,   2.56000,
Vertical Offset,0.000000e+00,,  -0.000370200000,   2.48000,
Horizontal Units,s,,  -0.000370000000,   2.56000,
Horizontal Scale,5.000000e-05,,  -0.000369800000,   2.48000,
Pt Fmt,Y,,  -0.000369600000,   2.56000,
Yzero,0.000000e+00,,  -0.000369400000,   2.56000,
Probe Atten,1.000000e+01,,  -0.000369200000,   2.48000,
Model Number,TBS1052B-EDU,,  -0.000369000000,   2.48000,
Serial Number,C011620,,  -0.000368800000,   2.56000,
Firmware Version,FV:v4.0,,  -0.000368600000,   2.56000,
,,,-00.000368400000,   2.48000,
,,,-00.000368200000,   2.56000,
,,,-00.000368000000,   2.56000,
,,,-00.000367800000,   2.48000,
,,,-00.000367600000,   2.56000,
,,,-00.000367400000,   2.56000,
,,,-00.000367200000,   2.56000,
,,,-00.000367000000,   2.56000,
,,,-00.000366800000,   2.56000,
,,,-00.000366600000,   2.56000,
,,,-00.000366400000,   2.48000,
,,,-00.000366200000,   2.56000,
,,,-00.000366000000,   2.48000,
,,,-00.000365800000,   2.56000,
,,,-00.000365600000,   2.56000,
,,,-00.000365400000,   2.48000,
,,,-00.000365200000,   2.56000,
,,,-00.000365000000,   2.64000,
,,,-00.000364800000,   2.56000,
,,,-00.000364600000,   2.56000,
,,,-00.000364400000,   2.56000,
,,,-00.000364200000,   2.56000,
,,,-00.000364000000,   2.56000,
,,,-00.000363800000,   2.64000,
,,,-00.000363600000,   2.56000,
,,,-00.000363400000,   2.56000,
,,,-00.000363200000,   2.56000,
,,,-00.000363000000,   2.56000,
,,,-00.000362800000,   2.56000,
,,,-00.000362600000,   2.48000,
,,,-00.000362400000,   2.48000,
,,,-00.000362200000,   2.56000,
,,,-00.000362000000,   2.48000,
,,,-00.000361800000,   2.48000,
,,,-00.000361600000,   2.56000,
,,,-00.000361400000,   2.56000,
,,,-00.000361200000,   2.56000,
,,,-00.000361000000,   2.56000,
,,,-00.000360800000,   2.56000,
,,,-00.000360600000,   2.48000,
,,,-00.000360400000,   2.48000,
,,,-00.000360200000,   2.56000,
,,,-00.000360000000,   2.56000,
,,,-00.000359800000,   2.48000,
,,,-00.000359600000,   2.56000,
,,,-00.000359400000,   2.56000,
,,,-00.000359200000,   2.64000,
,,,-00.000359000000,   2.56000,
,,,-00.000358800000,   2.56000,
,,,-00.000358600000,   2.56000,
,,,-00.000358400000,   2.56000,
,,,-00.000358200000,   2.48000,
,,,-00.000358000000,   2.56000,
,,,-00.000357800000,   2.48000,
,,,-00.000357600000,   2.48000,
,,,-00.000357400000,   2.48000,
,,,-00.000357200000,   2.56000,
,,,-00.000357000000,   2.48000,
,,,-00.000356800000,   2.48000,
,,,-00.000356600000,   2.56000,
,,,-00.000356400000,   2.48000,
,,,-00.000356200000,   2.56000,
,,,-00.000356000000,   2.56000,
,,,-00.000355800000,   2.56000,
,,,-00.000355600000,   2.56000,
,,,-00.000355400000,   2.48000,
,,,-00.000355200000,   2.56000,
,,,-00.000355000000,   2.56000,
,,,-00.000354800000,   2.64000,
,,,-00.000354600000,   2.56000,
,,,-00.000354400000,   2.48000,
,,,-00.000354200000,   2.56000,
,,,-00.000354000000,   2.56000,
,,,-00.000353800000,   2.56000,
,,,-00.000353600000,   2.48000,
,,,-00.000353400000,   2.48000,
,,,-00.000353200000,   2.56000,
,,,-00.000353000000,   2.56000,
,,,-00.000352800000,   2.56000,
,,,-00.000352600000,   2.48000,
,,,-00.000352400000,   2.56000,
,,,-00.000352200000,   2.48000,
,,,-00.000352000000,   2.48000,
,,,-00.000351800000,   2.48000,
,,,-00.000351600000,   2.56000,
,,,-00.000351400000,   2.56000,
,,,-00.000351200000,   2.48000,
,,,-00.000351000000,   2.48000,
,,,-00.000350800000,   2.56000,
,,,-00.000350600000,   2.56000,
,,,-00.000350400000,   2.56000,
,,,-00.000350200000,   2.56000,
,,,-00.000350000000,   2.48000,
,,,-00.000349800000,   2.56000,
,,,-00.000349600000,   2.56000,
,,,-00.000349400000,   2.56000,
,,,-00.000349200000,   2.56000,
,,,-00.000349000000,   2.56000,
,,,-00.000348800000,   2.64000,
,,,-00.000348600000,   2.56000,
,,,-00.000348400000,   2.48000,
,,,-00.000348200000,   2.64000,
,,,-00.000348000000,   2.48000,
,,,-00.000347800000,   2.56000,
,,,-00.000347600000,   2.48000,
,,,-00.000347400000,   2.56000,
,,,-00.000347200000,   2.48000,
,,,-00.000347000000,   2.64000,
,,,-00.000346800000,   2.56000,
,,,-00.000346600000,   2.56000,
,,,-00.000346400000,   2.56000,
,,,-00.000346200000,   2.48000,
,,,-00.000346000000,   2.56000,
,,,-00.000345800000,   2.64000,
,,,-00.000345600000,   2.48000,
,,,-00.000345400000,   2.48000,
,,,-00.000345200000,   2.56000,
,,,-00.000345000000,   2.56000,
,,,-00.000344800000,   2.56000,
,,,-00.000344600000,   2.56000,
,,,-00.000344400000,   2.56000,
,,,-00.000344200000,   2.56000,
,,,-00.000344000000,   2.64000,
,,,-00.000343800000,   2.48000,
,,,-00.000343600000,   2.56000,
,,,-00.000343400000,   2.48000,
,,,-00.000343200000,   2.56000,
,,,-00.000343000000,   2.48000,
,,,-00.000342800000,   2.48000,
,,,-00.000342600000,   2.48000,
,,,-00.000342400000,   2.56000,
,,,-00.000342200000,   2.48000,
,,,-00.000342000000,   2.56000,
,,,-00.000341800000,   2.56000,
,,,-00.000341600000,   2.56000,
,,,-00.000341400000,   2.56000,
,,,-00.000341200000,   2.56000,
,,,-00.000341000000,   2.56000,
,,,-00.000340800000,   2.56000,
,,,-00.000340600000,   2.48000,
,,,-00.000340400000,   2.56000,
,,,-00.000340200000,   2.56000,
,,,-00.000340000000,   2.48000,
,,,-00.000339800000,   2.56000,
,,,-00.000339600000,   2.64000,
,,,-00.000339400000,   2.56000,
,,,-00.000339200000,   2.56000,
,,,-00.000339000000,   2.64000,
,,,-00.000338800000,   2.56000,
,,,-00.000338600000,   2.56000,
,,,-00.000338400000,   2.56000,
,,,-00.000338200000,   2.56000,
,,,-00.000338000000,   2.48000,
,,,-00.000337800000,   2.48000,
,,,-00.000337600000,   2.48000,
,,,-00.000337400000,   2.56000,
,,,-00.000337200000,   2.48000,
,,,-00.000337000000,   2.56000,
,,,-00.000336800000,   2.56000,
,,,-00.000336600000,   2.56000,
,,,-00.000336400000,   2.56000,
,,,-00.000336200000,   2.56000,
,,,-00.000336000000,   2.48000,
,,,-00.000335800000,   2.56000,
,,,-00.000335600000,   2.48000,
,,,-00.000335400000,   2.56000,
,,,-00.000335200000,   2.48000,
,,,-00.000335000000,   2.56000,
,,,-00.000334800000,   2.56000,
,,,-00.000334600000,   2.56000,
,,,-00.000334400000,   2.56000,
,,,-00.000334200000,   2.48000,
,,,-00.000334000000,   2.56000,
,,,-00.000333800000,   2.56000,
,,,-00.000333600000,   2.48000,
,,,-00.000333400000,   2.48000,
,,,-00.000333200000,   2.48000,
,,,-00.000333000000,   2.56000,
,,,-00.000332800000,   2.56000,
,,,-00.000332600000,   2.64000,
,,,-00.000332400000,   2.48000,
,,,-00.000332200000,   2.64000,
,,,-00.000332000000,   2.48000,
,,,-00.000331800000,   2.56000,
,,,-00.000331600000,   2.56000,
,,,-00.000331400000,   2.48000,
,,,-00.000331200000,   2.56000,
,,,-00.000331000000,   2.48000,
,,,-00.000330800000,   2.56000,
,,,-00.000330600000,   2.56000,
,,,-00.000330400000,   2.56000,
,,,-00.000330200000,   2.48000,
,,,-00.000330000000,   2.56000,
,,,-00.000329800000,   2.56000,
,,,-00.000329600000,   2.48000,
,,,-00.000329400000,   2.56000,
,,,-00.000329200000,   2.56000,
,,,-00.000329000000,   2.64000,
,,,-00.000328800000,   2.56000,
,,,-00.000328600000,   2.56000,
,,,-00.000328400000,   2.48000,
,,,-00.000328200000,   2.48000,
,,,-00.000328000000,   2.48000,
,,,-00.000327800000,   2.56000,
,,,-00.000327600000,   2.64000,
,,,-00.000327400000,   2.48000,
,,,-00.000327200000,   2.56000,
,,,-00.000327000000,   2.56000,
,,,-00.000326800000,   2.48000,
,,,-00.000326600000,   2.56000,
,,,-00.000326400000,   2.56000,
,,,-00.000326200000,   2.56000,
,,,-00.000326000000,   2.56000,
,,,-00.000325800000,   2.48000,
,,,-00.000325600000,   2.48000,
,,,-00.000325400000,   2.64000,
,,,-00.000325200000,   2.48000,
,,,-00.000325000000,   2.56000,
,,,-00.000324800000,   2.56000,
,,,-00.000324600000,   2.56000,
,,,-00.000324400000,   2.56000,
,,,-00.000324200000,   2.64000,
,,,-00.000324000000,   2.56000,
,,,-00.000323800000,   2.56000,
,,,-00.000323600000,   2.56000,
,,,-00.000323400000,   2.56000,
,,,-00.000323200000,   2.48000,
,,,-00.000323000000,   2.56000,
,,,-00.000322800000,   2.48000,
,,,-00.000322600000,   2.48000,
,,,-00.000322400000,   2.56000,
,,,-00.000322200000,   2.56000,
,,,-00.000322000000,   2.56000,
,,,-00.000321800000,   2.56000,
,,,-00.000321600000,   2.56000,
,,,-00.000321400000,   2.48000,
,,,-00.000321200000,   2.56000,
,,,-00.000321000000,   2.56000,
,,,-00.000320800000,   2.48000,
,,,-00.000320600000,   2.56000,
,,,-00.000320400000,   2.56000,
,,,-00.000320200000,   2.48000,
,,,-00.000320000000,   2.48000,
,,,-00.000319800000,   2.56000,
,,,-00.000319600000,   2.56000,
,,,-00.000319400000,   2.48000,
,,,-00.000319200000,   2.48000,
,,,-00.000319000000,   2.56000,
,,,-00.000318800000,   2.48000,
,,,-00.000318600000,   2.56000,
,,,-00.000318400000,   2.56000,
,,,-00.000318200000,   2.56000,
,,,-00.000318000000,   2.56000,
,,,-00.000317800000,   2.56000,
,,,-00.000317600000,   2.56000,
,,,-00.000317400000,   2.56000,
,,,-00.000317200000,   2.56000,
,,,-00.000317000000,   2.56000,
,,,-00.000316800000,   2.64000,
,,,-00.000316600000,   2.56000,
,,,-00.000316400000,   2.48000,
,,,-00.000316200000,   2.56000,
,,,-00.000316000000,   2.56000,
,,,-00.000315800000,   2.56000,
,,,-00.000315600000,   2.64000,
,,,-00.000315400000,   2.56000,
,,,-00.000315200000,   2.48000,
,,,-00.000315000000,   2.48000,
,,,-00.000314800000,   2.56000,
,,,-00.000314600000,   2.64000,
,,,-00.000314400000,   2.56000,
,,,-00.000314200000,   2.48000,
,,,-00.000314000000,   2.56000,
,,,-00.000313800000,   2.56000,
,,,-00.000313600000,   2.48000,
,,,-00.000313400000,   2.56000,
,,,-00.000313200000,   2.56000,
,,,-00.000313000000,   2.48000,
,,,-00.000312800000,   2.56000,
,,,-00.000312600000,   2.48000,
,,,-00.000312400000,   2.56000,
,,,-00.000312200000,   2.56000,
,,,-00.000312000000,   2.64000,
,,,-00.000311800000,   2.56000,
,,,-00.000311600000,   2.48000,
,,,-00.000311400000,   2.48000,
,,,-00.000311200000,   2.48000,
,,,-00.000311000000,   2.56000,
,,,-00.000310800000,   2.48000,
,,,-00.000310600000,   2.56000,
,,,-00.000310400000,   2.56000,
,,,-00.000310200000,   2.48000,
,,,-00.000310000000,   2.48000,
,,,-00.000309800000,   2.48000,
,,,-00.000309600000,   2.48000,
,,,-00.000309400000,   2.56000,
,,,-00.000309200000,   2.56000,
,,,-00.000309000000,   2.64000,
,,,-00.000308800000,   2.56000,
,,,-00.000308600000,   2.64000,
,,,-00.000308400000,   2.48000,
,,,-00.000308200000,   2.64000,
,,,-00.000308000000,   2.64000,
,,,-00.000307800000,   2.56000,
,,,-00.000307600000,   2.56000,
,,,-00.000307400000,   2.48000,
,,,-00.000307200000,   2.48000,
,,,-00.000307000000,   2.48000,
,,,-00.000306800000,   2.48000,
,,,-00.000306600000,   2.48000,
,,,-00.000306400000,   2.56000,
,,,-00.000306200000,   2.56000,
,,,-00.000306000000,   2.56000,
,,,-00.000305800000,   2.56000,
,,,-00.000305600000,   2.56000,
,,,-00.000305400000,   2.48000,
,,,-00.000305200000,   4.00000,
,,,-00.000305000000,   4.16000,
,,,-00.000304800000,   4.08000,
,,,-00.000304600000,   4.08000,
,,,-00.000304400000,   4.16000,
,,,-00.000304200000,   4.08000,
,,,-00.000304000000,   4.00000,
,,,-00.000303800000,   4.00000,
,,,-00.000303600000,   4.08000,
,,,-00.000303400000,   4.08000,
,,,-00.000303200000,   4.16000,
,,,-00.000303000000,   4.08000,
,,,-00.000302800000,   4.16000,
,,,-00.000302600000,   4.08000,
,,,-00.000302400000,   4.08000,
,,,-00.000302200000,   4.16000,
,,,-00.000302000000,   4.16000,
,,,-00.000301800000,   4.16000,
,,,-00.000301600000,   4.08000,
,,,-00.000301400000,   4.08000,
,,,-00.000301200000,   4.08000,
,,,-00.000301000000,   4.16000,
,,,-00.000300800000,   4.24000,
,,,-00.000300600000,   4.16000,
,,,-00.000300400000,   4.16000,
,,,-00.000300200000,   4.24000,
,,,-00.000300000000,   4.24000,
,,,-00.000299800000,   4.24000,
,,,-00.000299600000,   4.24000,
,,,-00.000299400000,   4.32000,
,,,-00.000299200000,   4.32000,
,,,-00.000299000000,   4.24000,
,,,-00.000298800000,   4.24000,
,,,-00.000298600000,   4.24000,
,,,-00.000298400000,   4.24000,
,,,-00.000298200000,   4.32000,
,,,-00.000298000000,   4.32000,
,,,-00.000297800000,   4.40000,
,,,-00.000297600000,   4.32000,
,,,-00.000297400000,   4.32000,
,,,-00.000297200000,   4.32000,
,,,-00.000297000000,   4.32000,
,,,-00.000296800000,   4.32000,
,,,-00.000296600000,   4.32000,
,,,-00.000296400000,   4.24000,
,,,-00.000296200000,   4.24000,
,,,-00.000296000000,   4.24000,
,,,-00.000295800000,   4.32000,
,,,-00.000295600000,   4.32000,
,,,-00.000295400000,   4.48000,
,,,-00.000295200000,   4.40000,
,,,-00.000295000000,   4.40000,
,,,-00.000294800000,   4.32000,
,,,-00.000294600000,   4.40000,
,,,-00.000294400000,   4.40000,
,,,-00.000294200000,   4.48000,
,,,-00.000294000000,   4.40000,
,,,-00.000293800000,   4.32000,
,,,-00.000293600000,   4.40000,
,,,-00.000293400000,   4.48000,
,,,-00.000293200000,   4.48000,
,,,-00.000293000000,   4.48000,
,,,-00.000292800000,   4.48000,
,,,-00.000292600000,   4.48000,
,,,-00.000292400000,   4.48000,
,,,-00.000292200000,   4.48000,
,,,-00.000292000000,   4.40000,
,,,-00.000291800000,   4.48000,
,,,-00.000291600000,   4.48000,
,,,-00.000291400000,   4.48000,
,,,-00.000291200000,   4.48000,
,,,-00.000291000000,   4.40000,
,,,-00.000290800000,   4.48000,
,,,-00.000290600000,   4.48000,
,,,-00.000290400000,   4.48000,
,,,-00.000290200000,   4.56000,
,,,-00.000290000000,   4.48000,
,,,-00.000289800000,   4.48000,
,,,-00.000289600000,   4.56000,
,,,-00.000289400000,   4.56000,
,,,-00.000289200000,   4.64000,
,,,-00.000289000000,   4.56000,
,,,-00.000288800000,   4.56000,
,,,-00.000288600000,   4.56000,
,,,-00.000288400000,   4.56000,
,,,-00.000288200000,   4.56000,
,,,-00.000288000000,   4.72000,
,,,-00.000287800000,   4.56000,
,,,-00.000287600000,   4.64000,
,,,-00.000287400000,   4.56000,
,,,-00.000287200000,   4.64000,
,,,-00.000287000000,   4.64000,
,,,-00.000286800000,   4.56000,
,,,-00.000286600000,   4.64000,
,,,-00.000286400000,   4.56000,
,,,-00.000286200000,   4.56000,
,,,-00.000286000000,   4.64000,
,,,-00.000285800000,   4.64000,
,,,-00.000285600000,   4.72000,
,,,-00.000285400000,   4.64000,
,,,-00.000285200000,   4.72000,
,,,-00.000285000000,   4.64000,
,,,-00.000284800000,   4.72000,
,,,-00.000284600000,   4.72000,
,,,-00.000284400000,   4.72000,
,,,-00.000284200000,   4.64000,
,,,-00.000284000000,   4.56000,
,,,-00.000283800000,   4.64000,
,,,-00.000283600000,   4.64000,
,,,-00.000283400000,   4.72000,
,,,-00.000283200000,   4.64000,
,,,-00.000283000000,   4.72000,
,,,-00.000282800000,   4.72000,
,,,-00.000282600000,   4.64000,
,,,-00.000282400000,   4.72000,
,,,-00.000282200000,   4.72000,
,,,-00.000282000000,   4.80000,
,,,-00.000281800000,   4.72000,
,,,-00.000281600000,   4.80000,
,,,-00.000281400000,   4.64000,
,,,-00.000281200000,   4.72000,
,,,-00.000281000000,   4.72000,
,,,-00.000280800000,   4.72000,
,,,-00.000280600000,   4.80000,
,,,-00.000280400000,   4.88000,
,,,-00.000280200000,   4.88000,
,,,-00.000280000000,   4.80000,
,,,-00.000279800000,   4.80000,
,,,-00.000279600000,   4.80000,
,,,-00.000279400000,   4.88000,
,,,-00.000279200000,   4.88000,
,,,-00.000279000000,   4.80000,
,,,-00.000278800000,   4.80000,
,,,-00.000278600000,   4.80000,
,,,-00.000278400000,   4.88000,
,,,-00.000278200000,   4.80000,
,,,-00.000278000000,   4.88000,
,,,-00.000277800000,   4.88000,
,,,-00.000277600000,   4.80000,
,,,-00.000277400000,   4.80000,
,,,-00.000277200000,   4.80000,
,,,-00.000277000000,   4.88000,
,,,-00.000276800000,   4.80000,
,,,-00.000276600000,   4.80000,
,,,-00.000276400000,   4.88000,
,,,-00.000276200000,   4.80000,
,,,-00.000276000000,   4.88000,
,,,-00.000275800000,   4.80000,
,,,-00.000275600000,   4.88000,
,,,-00.000275400000,   4.96000,
,,,-00.000275200000,   4.96000,
,,,-00.000275000000,   4.96000,
,,,-00.000274800000,   4.88000,
,,,-00.000274600000,   4.96000,
,,,-00.000274400000,   4.96000,
,,,-00.000274200000,   4.88000,
,,,-00.000274000000,   4.88000,
,,,-00.000273800000,   4.88000,
,,,-00.000273600000,   4.88000,
,,,-00.000273400000,   4.96000,
,,,-00.000273200000,   5.04000,
,,,-00.000273000000,   4.96000,
,,,-00.000272800000,   4.96000,
,,,-00.000272600000,   4.96000,
,,,-00.000272400000,   4.96000,
,,,-00.000272200000,   4.96000,
,,,-00.000272000000,   4.96000,
,,,-00.000271800000,   4.88000,
,,,-00.000271600000,   4.96000,
,,,-00.000271400000,   4.88000,
,,,-00.000271200000,   4.96000,
,,,-00.000271000000,   4.88000,
,,,-00.000270800000,   4.96000,
,,,-00.000270600000,   4.88000,
,,,-00.000270400000,   4.88000,
,,,-00.000270200000,   4.88000,
,,,-00.000270000000,   4.96000,
,,,-00.000269800000,   5.04000,
,,,-00.000269600000,   4.96000,
,,,-00.000269400000,   4.96000,
,,,-00.000269200000,   5.04000,
,,,-00.000269000000,   4.96000,
,,,-00.000268800000,   4.88000,
,,,-00.000268600000,   4.96000,
,,,-00.000268400000,   4.88000,
,,,-00.000268200000,   5.04000,
,,,-00.000268000000,   4.88000,
,,,-00.000267800000,   4.96000,
,,,-00.000267600000,   4.88000,
,,,-00.000267400000,   4.96000,
,,,-00.000267200000,   4.96000,
,,,-00.000267000000,   4.88000,
,,,-00.000266800000,   4.96000,
,,,-00.000266600000,   4.96000,
,,,-00.000266400000,   4.96000,
,,,-00.000266200000,   4.96000,
,,,-00.000266000000,   4.88000,
,,,-00.000265800000,   4.88000,
,,,-00.000265600000,   4.96000,
,,,-00.000265400000,   4.96000,
,,,-00.000265200000,   4.96000,
,,,-00.000265000000,   4.96000,
,,,-00.000264800000,   5.04000,
,,,-00.000264600000,   5.04000,
,,,-00.000264400000,   4.88000,
,,,-00.000264200000,   4.96000,
,,,-00.000264000000,   4.96000,
,,,-00.000263800000,   4.96000,
,,,-00.000263600000,   4.96000,
,,,-00.000263400000,   4.96000,
,,,-00.000263200000,   5.04000,
,,,-00.000263000000,   4.96000,
,,,-00.000262800000,   4.96000,
,,,-00.000262600000,   4.96000,
,,,-00.000262400000,   4.96000,
,,,-00.000262200000,   4.88000,
,,,-00.000262000000,   4.96000,
,,,-00.000261800000,   4.80000,
,,,-00.000261600000,   4.96000,
,,,-00.000261400000,   4.96000,
,,,-00.000261200000,   4.88000,
,,,-00.000261000000,   4.88000,
,,,-00.000260800000,   4.96000,
,,,-00.000260600000,   4.96000,
,,,-00.000260400000,   4.96000,
,,,-00.000260200000,   4.96000,
,,,-00.000260000000,   4.96000,
,,,-00.000259800000,   4.96000,
,,,-00.000259600000,   4.96000,
,,,-00.000259400000,   4.96000,
,,,-00.000259200000,   4.88000,
,,,-00.000259000000,   4.96000,
,,,-00.000258800000,   4.96000,
,,,-00.000258600000,   4.96000,
,,,-00.000258400000,   4.88000,
,,,-00.000258200000,   5.04000,
,,,-00.000258000000,   4.96000,
,,,-00.000257800000,   4.88000,
,,,-00.000257600000,   4.96000,
,,,-00.000257400000,   5.04000,
,,,-00.000257200000,   4.96000,
,,,-00.000257000000,   4.88000,
,,,-00.000256800000,   4.96000,
,,,-00.000256600000,   4.88000,
,,,-00.000256400000,   4.96000,
,,,-00.000256200000,   4.96000,
,,,-00.000256000000,   4.88000,
,,,-00.000255800000,   4.96000,
,,,-00.000255600000,   5.04000,
,,,-00.000255400000,   5.12000,
,,,-00.000255200000,   4.96000,
,,,-00.000255000000,   4.88000,
,,,-00.000254800000,   4.96000,
,,,-00.000254600000,   4.96000,
,,,-00.000254400000,   4.96000,
,,,-00.000254200000,   4.96000,
,,,-00.000254000000,   5.04000,
,,,-00.000253800000,   5.04000,
,,,-00.000253600000,   4.88000,
,,,-00.000253400000,   5.04000,
,,,-00.000253200000,   5.04000,
,,,-00.000253000000,   5.04000,
,,,-00.000252800000,   4.96000,
,,,-00.000252600000,   5.04000,
,,,-00.000252400000,   4.96000,
,,,-00.000252200000,   4.96000,
,,,-00.000252000000,   4.96000,
,,,-00.000251800000,   4.96000,
,,,-00.000251600000,   4.88000,
,,,-00.000251400000,   4.96000,
,,,-00.000251200000,   4.88000,
,,,-00.000251000000,   4.88000,
,,,-00.000250800000,   4.96000,
,,,-00.000250600000,   4.96000,
,,,-00.000250400000,   5.04000,
,,,-00.000250200000,   4.96000,
,,,-00.000250000000,   4.88000,
,,,-00.000249800000,   4.96000,
,,,-00.000249600000,   4.96000,
,,,-00.000249400000,   4.88000,
